%YAML 1.1
%TAG !u! tag:unity3d.com,2011:
--- !u!114 &11400000
MonoBehaviour:
  m_ObjectHideFlags: 0
  m_CorrespondingSourceObject: {fileID: 0}
  m_PrefabInstance: {fileID: 0}
  m_PrefabAsset: {fileID: 0}
  m_GameObject: {fileID: 0}
  m_Enabled: 1
  m_EditorHideFlags: 0
  m_Script: {fileID: 11500000, guid: e4a2e85dfe32ad14ea60bcaa54375e2d, type: 3}
  m_Name: CollisionTile
  m_EditorClassIdentifier: 
  m_DefaultSprite: {fileID: 1842431459, guid: d3cb72db58673194db66c76fe0078ad6, type: 3}
  m_DefaultGameObject: {fileID: 0}
  m_DefaultColliderType: 1
  m_TilingRules:
  - m_Id: 0
    m_Sprites:
    - {fileID: 1342510530, guid: d3cb72db58673194db66c76fe0078ad6, type: 3}
    - {fileID: 364006342, guid: d3cb72db58673194db66c76fe0078ad6, type: 3}
    m_GameObject: {fileID: 0}
    m_MinAnimationSpeed: 0.5
    m_MaxAnimationSpeed: 0.5
    m_PerlinScale: 0.5
    m_Output: 2
    m_ColliderType: 1
    m_RandomTransform: 0
    m_Neighbors: 0100000001000000010000000200000002000000
    m_NeighborPositions:
    - {x: 0, y: 1, z: 0}
    - {x: -1, y: 0, z: 0}
    - {x: 1, y: -1, z: 0}
    - {x: 0, y: -1, z: 0}
    - {x: 1, y: 0, z: 0}
    m_RuleTransform: 0
  - m_Id: 1
    m_Sprites:
    - {fileID: -813744238, guid: d3cb72db58673194db66c76fe0078ad6, type: 3}
    - {fileID: 769802044, guid: d3cb72db58673194db66c76fe0078ad6, type: 3}
    m_GameObject: {fileID: 0}
    m_MinAnimationSpeed: 0.5
    m_MaxAnimationSpeed: 0.5
    m_PerlinScale: 0.5
    m_Output: 2
    m_ColliderType: 1
    m_RandomTransform: 0
    m_Neighbors: 0100000001000000010000000200000002000000
    m_NeighborPositions:
    - {x: 0, y: 1, z: 0}
    - {x: 1, y: 0, z: 0}
    - {x: -1, y: -1, z: 0}
    - {x: 0, y: -1, z: 0}
    - {x: -1, y: 0, z: 0}
    m_RuleTransform: 0
  - m_Id: 2
    m_Sprites:
    - {fileID: 694283627, guid: d3cb72db58673194db66c76fe0078ad6, type: 3}
    - {fileID: 532737598, guid: d3cb72db58673194db66c76fe0078ad6, type: 3}
    m_GameObject: {fileID: 0}
    m_MinAnimationSpeed: 0.5
    m_MaxAnimationSpeed: 0.5
    m_PerlinScale: 0.5
    m_Output: 2
    m_ColliderType: 1
    m_RandomTransform: 0
    m_Neighbors: 01000000010000000200000002000000
    m_NeighborPositions:
    - {x: 0, y: 1, z: 0}
    - {x: 0, y: -1, z: 0}
    - {x: 1, y: 0, z: 0}
    - {x: -1, y: 0, z: 0}
    m_RuleTransform: 0
  - m_Id: 3
    m_Sprites:
    - {fileID: 569156203, guid: d3cb72db58673194db66c76fe0078ad6, type: 3}
    - {fileID: 1794832623, guid: d3cb72db58673194db66c76fe0078ad6, type: 3}
    m_GameObject: {fileID: 0}
    m_MinAnimationSpeed: 0.5
    m_MaxAnimationSpeed: 0.5
    m_PerlinScale: 0.5
    m_Output: 2
    m_ColliderType: 1
    m_RandomTransform: 0
    m_Neighbors: 010000000100000001000000020000000200000002000000
    m_NeighborPositions:
    - {x: 0, y: 1, z: 0}
    - {x: -1, y: -1, z: 0}
    - {x: 1, y: -1, z: 0}
    - {x: -1, y: 0, z: 0}
    - {x: 0, y: -1, z: 0}
    - {x: 1, y: 0, z: 0}
    m_RuleTransform: 0
  - m_Id: 4
    m_Sprites:
    - {fileID: 1449115226, guid: d3cb72db58673194db66c76fe0078ad6, type: 3}
    - {fileID: 1084912742, guid: d3cb72db58673194db66c76fe0078ad6, type: 3}
    m_GameObject: {fileID: 0}
    m_MinAnimationSpeed: 0.5
    m_MaxAnimationSpeed: 0.5
    m_PerlinScale: 0.5
    m_Output: 2
    m_ColliderType: 1
    m_RandomTransform: 0
    m_Neighbors: 010000000100000001000000020000000200000002000000
    m_NeighborPositions:
    - {x: -1, y: 1, z: 0}
    - {x: 1, y: 1, z: 0}
    - {x: 0, y: -1, z: 0}
    - {x: 0, y: 1, z: 0}
    - {x: -1, y: 0, z: 0}
    - {x: 1, y: 0, z: 0}
    m_RuleTransform: 0
  - m_Id: 5
    m_Sprites:
    - {fileID: -1193919026, guid: d3cb72db58673194db66c76fe0078ad6, type: 3}
    - {fileID: -612032304, guid: d3cb72db58673194db66c76fe0078ad6, type: 3}
    m_GameObject: {fileID: 0}
    m_MinAnimationSpeed: 0.5
    m_MaxAnimationSpeed: 0.5
    m_PerlinScale: 0.5
    m_Output: 2
    m_ColliderType: 1
    m_RandomTransform: 0
    m_Neighbors: 01000000010000000100000002000000
    m_NeighborPositions:
    - {x: 0, y: 1, z: 0}
    - {x: 1, y: 0, z: 0}
    - {x: 0, y: -1, z: 0}
    - {x: -1, y: 0, z: 0}
    m_RuleTransform: 0
  - m_Id: 6
    m_Sprites:
    - {fileID: -2079840089, guid: d3cb72db58673194db66c76fe0078ad6, type: 3}
    - {fileID: 1616645039, guid: d3cb72db58673194db66c76fe0078ad6, type: 3}
    m_GameObject: {fileID: 0}
    m_MinAnimationSpeed: 0.5
    m_MaxAnimationSpeed: 0.5
    m_PerlinScale: 0.5
    m_Output: 2
    m_ColliderType: 1
    m_RandomTransform: 0
    m_Neighbors: 01000000010000000100000002000000
    m_NeighborPositions:
    - {x: -1, y: 0, z: 0}
    - {x: 0, y: -1, z: 0}
    - {x: 1, y: 0, z: 0}
    - {x: 0, y: 1, z: 0}
    m_RuleTransform: 0
  - m_Id: 7
    m_Sprites:
    - {fileID: 895138652, guid: d3cb72db58673194db66c76fe0078ad6, type: 3}
    - {fileID: 2009273548, guid: d3cb72db58673194db66c76fe0078ad6, type: 3}
    m_GameObject: {fileID: 0}
    m_MinAnimationSpeed: 0.5
    m_MaxAnimationSpeed: 0.5
    m_PerlinScale: 0.5
    m_Output: 2
    m_ColliderType: 1
    m_RandomTransform: 0
    m_Neighbors: 01000000010000000200000002000000
    m_NeighborPositions:
    - {x: 0, y: 1, z: 0}
    - {x: -1, y: 0, z: 0}
    - {x: 0, y: -1, z: 0}
    - {x: 1, y: 0, z: 0}
    m_RuleTransform: 0
  - m_Id: 8
    m_Sprites:
    - {fileID: -1011664910, guid: d3cb72db58673194db66c76fe0078ad6, type: 3}
    - {fileID: -2004318030, guid: d3cb72db58673194db66c76fe0078ad6, type: 3}
    m_GameObject: {fileID: 0}
    m_MinAnimationSpeed: 0.5
    m_MaxAnimationSpeed: 0.5
    m_PerlinScale: 0.5
    m_Output: 2
    m_ColliderType: 1
    m_RandomTransform: 0
    m_Neighbors: 01000000010000000200000002000000
    m_NeighborPositions:
    - {x: 0, y: 1, z: 0}
    - {x: 1, y: 0, z: 0}
    - {x: -1, y: 0, z: 0}
    - {x: 0, y: -1, z: 0}
    m_RuleTransform: 0
  - m_Id: 9
    m_Sprites:
    - {fileID: -1554978894, guid: d3cb72db58673194db66c76fe0078ad6, type: 3}
    - {fileID: 1293039017, guid: d3cb72db58673194db66c76fe0078ad6, type: 3}
    m_GameObject: {fileID: 0}
    m_MinAnimationSpeed: 0.5
    m_MaxAnimationSpeed: 0.5
    m_PerlinScale: 0.5
    m_Output: 2
    m_ColliderType: 1
    m_RandomTransform: 0
    m_Neighbors: 0100000001000000010000000200000002000000
    m_NeighborPositions:
    - {x: -1, y: 0, z: 0}
    - {x: 0, y: -1, z: 0}
    - {x: 1, y: 1, z: 0}
    - {x: 0, y: 1, z: 0}
    - {x: 1, y: 0, z: 0}
    m_RuleTransform: 0
  - m_Id: 10
    m_Sprites:
    - {fileID: -29684455, guid: d3cb72db58673194db66c76fe0078ad6, type: 3}
    - {fileID: 1929873056, guid: d3cb72db58673194db66c76fe0078ad6, type: 3}
    m_GameObject: {fileID: 0}
    m_MinAnimationSpeed: 0.5
    m_MaxAnimationSpeed: 0.5
    m_PerlinScale: 0.5
    m_Output: 2
    m_ColliderType: 1
    m_RandomTransform: 0
    m_Neighbors: 0100000001000000010000000200000002000000
    m_NeighborPositions:
    - {x: 1, y: 0, z: 0}
    - {x: 0, y: -1, z: 0}
    - {x: -1, y: 1, z: 0}
    - {x: 0, y: 1, z: 0}
    - {x: -1, y: 0, z: 0}
    m_RuleTransform: 0
  - m_Id: 11
    m_Sprites:
    - {fileID: 1446790859, guid: d3cb72db58673194db66c76fe0078ad6, type: 3}
    - {fileID: 614237563, guid: d3cb72db58673194db66c76fe0078ad6, type: 3}
    m_GameObject: {fileID: 0}
    m_MinAnimationSpeed: 0.5
    m_MaxAnimationSpeed: 0.5
    m_PerlinScale: 0.5
    m_Output: 2
    m_ColliderType: 1
    m_RandomTransform: 0
    m_Neighbors: 01000000010000000200000002000000
    m_NeighborPositions:
    - {x: -1, y: 0, z: 0}
    - {x: 1, y: 0, z: 0}
    - {x: 0, y: 1, z: 0}
    - {x: 0, y: -1, z: 0}
    m_RuleTransform: 0
  - m_Id: 12
    m_Sprites:
    - {fileID: -199039960, guid: d3cb72db58673194db66c76fe0078ad6, type: 3}
    - {fileID: -1435674496, guid: d3cb72db58673194db66c76fe0078ad6, type: 3}
    m_GameObject: {fileID: 0}
    m_MinAnimationSpeed: 0.5
    m_MaxAnimationSpeed: 0.5
    m_PerlinScale: 0.5
    m_Output: 2
    m_ColliderType: 1
    m_RandomTransform: 0
    m_Neighbors: 010000000100000001000000020000000200000002000000
    m_NeighborPositions:
    - {x: -1, y: 0, z: 0}
    - {x: 1, y: 1, z: 0}
    - {x: 1, y: -1, z: 0}
    - {x: 0, y: -1, z: 0}
    - {x: 0, y: 1, z: 0}
    - {x: 1, y: 0, z: 0}
    m_RuleTransform: 0
  - m_Id: 13
    m_Sprites:
    - {fileID: 1901322063, guid: d3cb72db58673194db66c76fe0078ad6, type: 3}
    - {fileID: -977009790, guid: d3cb72db58673194db66c76fe0078ad6, type: 3}
    m_GameObject: {fileID: 0}
    m_MinAnimationSpeed: 0.5
    m_MaxAnimationSpeed: 0.5
    m_PerlinScale: 0.5
    m_Output: 2
    m_ColliderType: 1
    m_RandomTransform: 0
    m_Neighbors: 010000000100000001000000020000000200000002000000
    m_NeighborPositions:
    - {x: -1, y: 1, z: 0}
    - {x: -1, y: -1, z: 0}
    - {x: 1, y: 0, z: 0}
    - {x: 0, y: 1, z: 0}
    - {x: 0, y: -1, z: 0}
    - {x: -1, y: 0, z: 0}
    m_RuleTransform: 0
  - m_Id: 14
    m_Sprites:
    - {fileID: -73478368, guid: d3cb72db58673194db66c76fe0078ad6, type: 3}
    - {fileID: -1144952309, guid: d3cb72db58673194db66c76fe0078ad6, type: 3}
    m_GameObject: {fileID: 0}
    m_MinAnimationSpeed: 0.5
    m_MaxAnimationSpeed: 0.5
    m_PerlinScale: 0.5
    m_Output: 2
    m_ColliderType: 1
    m_RandomTransform: 0
    m_Neighbors: 01000000010000000100000002000000
    m_NeighborPositions:
    - {x: -1, y: 0, z: 0}
    - {x: 0, y: 1, z: 0}
    - {x: 1, y: 0, z: 0}
    - {x: 0, y: -1, z: 0}
    m_RuleTransform: 0
  - m_Id: 15
    m_Sprites:
    - {fileID: -949918267, guid: d3cb72db58673194db66c76fe0078ad6, type: 3}
    - {fileID: -636252381, guid: d3cb72db58673194db66c76fe0078ad6, type: 3}
    m_GameObject: {fileID: 0}
    m_MinAnimationSpeed: 0.5
    m_MaxAnimationSpeed: 0.5
    m_PerlinScale: 0.5
    m_Output: 2
    m_ColliderType: 1
    m_RandomTransform: 0
    m_Neighbors: 01000000010000000100000002000000
    m_NeighborPositions:
    - {x: 0, y: 1, z: 0}
    - {x: -1, y: 0, z: 0}
    - {x: 0, y: -1, z: 0}
    - {x: 1, y: 0, z: 0}
    m_RuleTransform: 0
  - m_Id: 16
    m_Sprites:
    - {fileID: -336245847, guid: d3cb72db58673194db66c76fe0078ad6, type: 3}
    - {fileID: 1915277238, guid: d3cb72db58673194db66c76fe0078ad6, type: 3}
    m_GameObject: {fileID: 0}
    m_MinAnimationSpeed: 0.5
    m_MaxAnimationSpeed: 0.5
    m_PerlinScale: 0.5
    m_Output: 2
    m_ColliderType: 1
    m_RandomTransform: 0
    m_Neighbors: 01000000010000000200000002000000
    m_NeighborPositions:
    - {x: -1, y: 0, z: 0}
    - {x: 0, y: -1, z: 0}
    - {x: 0, y: 1, z: 0}
    - {x: 1, y: 0, z: 0}
    m_RuleTransform: 0
  - m_Id: 17
    m_Sprites:
    - {fileID: -1591359865, guid: d3cb72db58673194db66c76fe0078ad6, type: 3}
    - {fileID: -2049750998, guid: d3cb72db58673194db66c76fe0078ad6, type: 3}
    m_GameObject: {fileID: 0}
    m_MinAnimationSpeed: 0.5
    m_MaxAnimationSpeed: 0.5
    m_PerlinScale: 0.5
    m_Output: 2
    m_ColliderType: 1
    m_RandomTransform: 0
    m_Neighbors: 01000000010000000200000002000000
    m_NeighborPositions:
    - {x: 0, y: -1, z: 0}
    - {x: 1, y: 0, z: 0}
    - {x: 0, y: 1, z: 0}
    - {x: -1, y: 0, z: 0}
    m_RuleTransform: 0
  - m_Id: 18
    m_Sprites:
    - {fileID: -1573342503, guid: d3cb72db58673194db66c76fe0078ad6, type: 3}
    - {fileID: 937745524, guid: d3cb72db58673194db66c76fe0078ad6, type: 3}
    m_GameObject: {fileID: 0}
    m_MinAnimationSpeed: 0.5
    m_MaxAnimationSpeed: 0.5
    m_PerlinScale: 0.5
    m_Output: 2
    m_ColliderType: 1
    m_RandomTransform: 0
    m_Neighbors: 0100000002000000020000000200000002000000020000000200000002000000
    m_NeighborPositions:
    - {x: 1, y: -1, z: 0}
    - {x: 0, y: 1, z: 0}
    - {x: 1, y: 0, z: 0}
    - {x: -1, y: 0, z: 0}
    - {x: 0, y: -1, z: 0}
    - {x: 1, y: 1, z: 0}
    - {x: -1, y: -1, z: 0}
    - {x: -1, y: 1, z: 0}
    m_RuleTransform: 0
  - m_Id: 19
    m_Sprites:
    - {fileID: 818179698, guid: d3cb72db58673194db66c76fe0078ad6, type: 3}
    - {fileID: 1071660607, guid: d3cb72db58673194db66c76fe0078ad6, type: 3}
    m_GameObject: {fileID: 0}
    m_MinAnimationSpeed: 0.5
    m_MaxAnimationSpeed: 0.5
    m_PerlinScale: 0.5
    m_Output: 2
    m_ColliderType: 1
    m_RandomTransform: 0
    m_Neighbors: 0100000002000000020000000200000002000000020000000200000002000000
    m_NeighborPositions:
    - {x: -1, y: -1, z: 0}
    - {x: -1, y: 0, z: 0}
    - {x: 0, y: 1, z: 0}
    - {x: 1, y: 0, z: 0}
    - {x: 0, y: -1, z: 0}
    - {x: -1, y: 1, z: 0}
    - {x: 1, y: -1, z: 0}
    - {x: 1, y: 1, z: 0}
    m_RuleTransform: 0
  - m_Id: 20
    m_Sprites:
    - {fileID: -60340279, guid: d3cb72db58673194db66c76fe0078ad6, type: 3}
    - {fileID: -2144326979, guid: d3cb72db58673194db66c76fe0078ad6, type: 3}
    m_GameObject: {fileID: 0}
    m_MinAnimationSpeed: 0.5
    m_MaxAnimationSpeed: 0.5
    m_PerlinScale: 0.5
    m_Output: 2
    m_ColliderType: 1
    m_RandomTransform: 0
    m_Neighbors: 0100000001000000020000000200000002000000020000000200000002000000
    m_NeighborPositions:
    - {x: 1, y: -1, z: 0}
    - {x: -1, y: -1, z: 0}
    - {x: 0, y: 1, z: 0}
    - {x: -1, y: 0, z: 0}
    - {x: 0, y: -1, z: 0}
    - {x: 1, y: 0, z: 0}
    - {x: -1, y: 1, z: 0}
    - {x: 1, y: 1, z: 0}
    m_RuleTransform: 0
  - m_Id: 21
    m_Sprites:
    - {fileID: 1093556298, guid: d3cb72db58673194db66c76fe0078ad6, type: 3}
    - {fileID: 1845289501, guid: d3cb72db58673194db66c76fe0078ad6, type: 3}
    m_GameObject: {fileID: 0}
    m_MinAnimationSpeed: 0.5
    m_MaxAnimationSpeed: 0.5
    m_PerlinScale: 0.5
    m_Output: 2
    m_ColliderType: 1
    m_RandomTransform: 0
    m_Neighbors: 0100000001000000020000000200000002000000020000000200000002000000
    m_NeighborPositions:
    - {x: -1, y: 1, z: 0}
    - {x: 1, y: 1, z: 0}
    - {x: 0, y: 1, z: 0}
    - {x: -1, y: 0, z: 0}
    - {x: 1, y: 0, z: 0}
    - {x: 0, y: -1, z: 0}
    - {x: 1, y: -1, z: 0}
    - {x: -1, y: -1, z: 0}
    m_RuleTransform: 0
  - m_Id: 22
    m_Sprites:
    - {fileID: 443694884, guid: d3cb72db58673194db66c76fe0078ad6, type: 3}
    - {fileID: -1725057365, guid: d3cb72db58673194db66c76fe0078ad6, type: 3}
    m_GameObject: {fileID: 0}
    m_MinAnimationSpeed: 0.5
    m_MaxAnimationSpeed: 0.5
    m_PerlinScale: 0.5
    m_Output: 2
    m_ColliderType: 1
    m_RandomTransform: 0
    m_Neighbors: 010000000200000002000000020000000200000002000000
    m_NeighborPositions:
    - {x: -1, y: 0, z: 0}
    - {x: 0, y: 1, z: 0}
    - {x: 0, y: -1, z: 0}
    - {x: 1, y: 0, z: 0}
    - {x: 1, y: 1, z: 0}
    - {x: 1, y: -1, z: 0}
    m_RuleTransform: 0
  - m_Id: 23
    m_Sprites:
    - {fileID: 1211852311, guid: d3cb72db58673194db66c76fe0078ad6, type: 3}
    - {fileID: -541423265, guid: d3cb72db58673194db66c76fe0078ad6, type: 3}
    m_GameObject: {fileID: 0}
    m_MinAnimationSpeed: 0.5
    m_MaxAnimationSpeed: 0.5
    m_PerlinScale: 0.5
    m_Output: 2
    m_ColliderType: 1
    m_RandomTransform: 0
    m_Neighbors: 010000000200000002000000020000000200000002000000
    m_NeighborPositions:
    - {x: 1, y: 0, z: 0}
    - {x: 0, y: 1, z: 0}
    - {x: -1, y: 0, z: 0}
    - {x: 0, y: -1, z: 0}
    - {x: -1, y: 1, z: 0}
    - {x: -1, y: -1, z: 0}
    m_RuleTransform: 0
  - m_Id: 25
    m_Sprites:
    - {fileID: -1444396231, guid: d3cb72db58673194db66c76fe0078ad6, type: 3}
    - {fileID: -1695937424, guid: d3cb72db58673194db66c76fe0078ad6, type: 3}
    m_GameObject: {fileID: 0}
    m_MinAnimationSpeed: 0.5
    m_MaxAnimationSpeed: 0.5
    m_PerlinScale: 0.5
    m_Output: 2
    m_ColliderType: 1
    m_RandomTransform: 0
    m_Neighbors: 0100000001000000010000000100000002000000020000000200000002000000
    m_NeighborPositions:
    - {x: -1, y: 1, z: 0}
    - {x: 1, y: 1, z: 0}
    - {x: 1, y: -1, z: 0}
    - {x: -1, y: -1, z: 0}
    - {x: 0, y: 1, z: 0}
    - {x: -1, y: 0, z: 0}
    - {x: 1, y: 0, z: 0}
    - {x: 0, y: -1, z: 0}
    m_RuleTransform: 0
  - m_Id: 26
    m_Sprites:
    - {fileID: -1620483009, guid: d3cb72db58673194db66c76fe0078ad6, type: 3}
    - {fileID: -1603345036, guid: d3cb72db58673194db66c76fe0078ad6, type: 3}
    m_GameObject: {fileID: 0}
    m_MinAnimationSpeed: 0.5
    m_MaxAnimationSpeed: 0.5
    m_PerlinScale: 0.5
    m_Output: 2
    m_ColliderType: 1
    m_RandomTransform: 0
    m_Neighbors: 0100000002000000020000000200000002000000020000000200000002000000
    m_NeighborPositions:
    - {x: 1, y: 1, z: 0}
    - {x: 0, y: 1, z: 0}
    - {x: -1, y: 0, z: 0}
    - {x: 0, y: -1, z: 0}
    - {x: 1, y: 0, z: 0}
    - {x: 1, y: -1, z: 0}
    - {x: -1, y: 1, z: 0}
    - {x: -1, y: -1, z: 0}
    m_RuleTransform: 0
  - m_Id: 27
    m_Sprites:
    - {fileID: 1768366173, guid: d3cb72db58673194db66c76fe0078ad6, type: 3}
    - {fileID: 502157630, guid: d3cb72db58673194db66c76fe0078ad6, type: 3}
    m_GameObject: {fileID: 0}
    m_MinAnimationSpeed: 0.5
    m_MaxAnimationSpeed: 0.5
    m_PerlinScale: 0.5
    m_Output: 2
    m_ColliderType: 1
    m_RandomTransform: 0
    m_Neighbors: 0100000002000000020000000200000002000000020000000200000002000000
    m_NeighborPositions:
    - {x: -1, y: 1, z: 0}
    - {x: 0, y: 1, z: 0}
    - {x: 1, y: 0, z: 0}
    - {x: -1, y: 0, z: 0}
    - {x: 0, y: -1, z: 0}
    - {x: -1, y: -1, z: 0}
    - {x: 1, y: 1, z: 0}
    - {x: 1, y: -1, z: 0}
    m_RuleTransform: 0
  - m_Id: 28
    m_Sprites:
    - {fileID: 1481233828, guid: d3cb72db58673194db66c76fe0078ad6, type: 3}
    - {fileID: -254817825, guid: d3cb72db58673194db66c76fe0078ad6, type: 3}
    m_GameObject: {fileID: 0}
    m_MinAnimationSpeed: 0.5
    m_MaxAnimationSpeed: 0.5
    m_PerlinScale: 0.5
    m_Output: 2
    m_ColliderType: 1
    m_RandomTransform: 0
    m_Neighbors: 0100000001000000020000000200000002000000020000000200000002000000
    m_NeighborPositions:
    - {x: 1, y: 1, z: 0}
    - {x: 1, y: -1, z: 0}
    - {x: 0, y: 1, z: 0}
    - {x: 1, y: 0, z: 0}
    - {x: -1, y: 0, z: 0}
    - {x: 0, y: -1, z: 0}
    - {x: -1, y: 1, z: 0}
    - {x: -1, y: -1, z: 0}
    m_RuleTransform: 0
  - m_Id: 29
    m_Sprites:
    - {fileID: 738216137, guid: d3cb72db58673194db66c76fe0078ad6, type: 3}
    - {fileID: -508527169, guid: d3cb72db58673194db66c76fe0078ad6, type: 3}
    m_GameObject: {fileID: 0}
    m_MinAnimationSpeed: 0.5
    m_MaxAnimationSpeed: 0.5
    m_PerlinScale: 0.5
    m_Output: 2
    m_ColliderType: 1
    m_RandomTransform: 0
    m_Neighbors: 0100000001000000020000000200000002000000020000000200000002000000
    m_NeighborPositions:
    - {x: -1, y: 1, z: 0}
    - {x: -1, y: -1, z: 0}
    - {x: 0, y: 1, z: 0}
    - {x: 0, y: -1, z: 0}
    - {x: 1, y: 0, z: 0}
    - {x: -1, y: 0, z: 0}
    - {x: 1, y: 1, z: 0}
    - {x: 1, y: -1, z: 0}
    m_RuleTransform: 0
  - m_Id: 30
    m_Sprites:
    - {fileID: 2038054171, guid: d3cb72db58673194db66c76fe0078ad6, type: 3}
    - {fileID: -1166525601, guid: d3cb72db58673194db66c76fe0078ad6, type: 3}
    m_GameObject: {fileID: 0}
    m_MinAnimationSpeed: 0.5
    m_MaxAnimationSpeed: 0.5
    m_PerlinScale: 0.5
    m_Output: 2
    m_ColliderType: 1
    m_RandomTransform: 0
    m_Neighbors: 010000000200000002000000020000000200000002000000
    m_NeighborPositions:
    - {x: 0, y: 1, z: 0}
    - {x: -1, y: 0, z: 0}
    - {x: 1, y: 0, z: 0}
    - {x: 0, y: -1, z: 0}
    - {x: -1, y: -1, z: 0}
    - {x: 1, y: -1, z: 0}
    m_RuleTransform: 0
  - m_Id: 31
    m_Sprites:
    - {fileID: 683921794, guid: d3cb72db58673194db66c76fe0078ad6, type: 3}
    - {fileID: -62383387, guid: d3cb72db58673194db66c76fe0078ad6, type: 3}
    m_GameObject: {fileID: 0}
    m_MinAnimationSpeed: 0.5
    m_MaxAnimationSpeed: 0.5
    m_PerlinScale: 0.5
    m_Output: 2
    m_ColliderType: 1
    m_RandomTransform: 0
    m_Neighbors: 010000000200000002000000020000000200000002000000
    m_NeighborPositions:
    - {x: 0, y: -1, z: 0}
    - {x: 0, y: 1, z: 0}
    - {x: 1, y: 0, z: 0}
    - {x: -1, y: 0, z: 0}
    - {x: 1, y: 1, z: 0}
    - {x: -1, y: 1, z: 0}
    m_RuleTransform: 0
  - m_Id: 32
    m_Sprites:
    - {fileID: 1842431459, guid: d3cb72db58673194db66c76fe0078ad6, type: 3}
    - {fileID: 669884547, guid: d3cb72db58673194db66c76fe0078ad6, type: 3}
    m_GameObject: {fileID: 0}
    m_MinAnimationSpeed: 0.5
    m_MaxAnimationSpeed: 0.5
    m_PerlinScale: 0.5
    m_Output: 2
    m_ColliderType: 1
    m_RandomTransform: 0
    m_Neighbors: 01000000010000000100000001000000
    m_NeighborPositions:
    - {x: -1, y: 0, z: 0}
    - {x: 0, y: 1, z: 0}
    - {x: 1, y: 0, z: 0}
    - {x: 0, y: -1, z: 0}
    m_RuleTransform: 0
  - m_Id: 33
    m_Sprites:
    - {fileID: -1654276640, guid: d3cb72db58673194db66c76fe0078ad6, type: 3}
    - {fileID: 1003447849, guid: d3cb72db58673194db66c76fe0078ad6, type: 3}
    m_GameObject: {fileID: 0}
    m_MinAnimationSpeed: 0.5
    m_MaxAnimationSpeed: 0.5
    m_PerlinScale: 0.5
    m_Output: 2
    m_ColliderType: 1
    m_RandomTransform: 0
    m_Neighbors: 01000000010000000100000002000000020000000200000002000000
    m_NeighborPositions:
    - {x: -1, y: -1, z: 0}
    - {x: -1, y: 1, z: 0}
    - {x: 1, y: 1, z: 0}
    - {x: 0, y: 1, z: 0}
    - {x: -1, y: 0, z: 0}
    - {x: 1, y: 0, z: 0}
    - {x: 0, y: -1, z: 0}
    m_RuleTransform: 0
  - m_Id: 34
    m_Sprites:
    - {fileID: 1605876769, guid: d3cb72db58673194db66c76fe0078ad6, type: 3}
    - {fileID: -211916271, guid: d3cb72db58673194db66c76fe0078ad6, type: 3}
    m_GameObject: {fileID: 0}
    m_MinAnimationSpeed: 0.5
    m_MaxAnimationSpeed: 0.5
    m_PerlinScale: 0.5
    m_Output: 2
    m_ColliderType: 1
    m_RandomTransform: 0
    m_Neighbors: 01000000010000000100000002000000020000000200000002000000
    m_NeighborPositions:
    - {x: -1, y: 1, z: 0}
    - {x: 1, y: 1, z: 0}
    - {x: 1, y: -1, z: 0}
    - {x: 0, y: 1, z: 0}
    - {x: 1, y: 0, z: 0}
    - {x: -1, y: 0, z: 0}
    - {x: 0, y: -1, z: 0}
    m_RuleTransform: 0
  - m_Id: 35
    m_Sprites:
    - {fileID: 1262191911, guid: d3cb72db58673194db66c76fe0078ad6, type: 3}
    - {fileID: -254823614, guid: d3cb72db58673194db66c76fe0078ad6, type: 3}
    m_GameObject: {fileID: 0}
    m_MinAnimationSpeed: 0.5
    m_MaxAnimationSpeed: 0.5
    m_PerlinScale: 0.5
    m_Output: 2
    m_ColliderType: 1
    m_RandomTransform: 0
    m_Neighbors: 0100000001000000020000000200000002000000
    m_NeighborPositions:
    - {x: -1, y: 0, z: 0}
    - {x: 1, y: 1, z: 0}
    - {x: 0, y: 1, z: 0}
    - {x: 1, y: 0, z: 0}
    - {x: 0, y: -1, z: 0}
    m_RuleTransform: 0
  - m_Id: 36
    m_Sprites:
    - {fileID: 486430017, guid: d3cb72db58673194db66c76fe0078ad6, type: 3}
    - {fileID: 1144667559, guid: d3cb72db58673194db66c76fe0078ad6, type: 3}
    m_GameObject: {fileID: 0}
    m_MinAnimationSpeed: 0.5
    m_MaxAnimationSpeed: 0.5
    m_PerlinScale: 0.5
    m_Output: 2
    m_ColliderType: 1
    m_RandomTransform: 0
    m_Neighbors: 0100000001000000020000000200000002000000
    m_NeighborPositions:
    - {x: -1, y: 1, z: 0}
    - {x: 1, y: 0, z: 0}
    - {x: 0, y: 1, z: 0}
    - {x: -1, y: 0, z: 0}
    - {x: 0, y: -1, z: 0}
    m_RuleTransform: 0
  - m_Id: 37
    m_Sprites:
    - {fileID: 1395515800, guid: d3cb72db58673194db66c76fe0078ad6, type: 3}
    - {fileID: 809950829, guid: d3cb72db58673194db66c76fe0078ad6, type: 3}
    m_GameObject: {fileID: 0}
    m_MinAnimationSpeed: 0.5
    m_MaxAnimationSpeed: 0.5
    m_PerlinScale: 0.5
    m_Output: 2
    m_ColliderType: 1
    m_RandomTransform: 0
    m_Neighbors: 0100000001000000020000000200000002000000
    m_NeighborPositions:
    - {x: 0, y: 1, z: 0}
    - {x: -1, y: -1, z: 0}
    - {x: 0, y: -1, z: 0}
    - {x: -1, y: 0, z: 0}
    - {x: 1, y: 0, z: 0}
    m_RuleTransform: 0
  - m_Id: 38
    m_Sprites:
    - {fileID: 2056882226, guid: d3cb72db58673194db66c76fe0078ad6, type: 3}
    - {fileID: 1929603105, guid: d3cb72db58673194db66c76fe0078ad6, type: 3}
    m_GameObject: {fileID: 0}
    m_MinAnimationSpeed: 0.5
    m_MaxAnimationSpeed: 0.5
    m_PerlinScale: 0.5
    m_Output: 2
    m_ColliderType: 1
    m_RandomTransform: 0
    m_Neighbors: 0100000001000000020000000200000002000000
    m_NeighborPositions:
    - {x: 0, y: 1, z: 0}
    - {x: 1, y: -1, z: 0}
    - {x: 0, y: -1, z: 0}
    - {x: -1, y: 0, z: 0}
    - {x: 1, y: 0, z: 0}
    m_RuleTransform: 0
  - m_Id: 39
    m_Sprites:
    - {fileID: -1812355318, guid: d3cb72db58673194db66c76fe0078ad6, type: 3}
    - {fileID: -253523192, guid: d3cb72db58673194db66c76fe0078ad6, type: 3}
    m_GameObject: {fileID: 0}
    m_MinAnimationSpeed: 0.5
    m_MaxAnimationSpeed: 0.5
    m_PerlinScale: 0.5
    m_Output: 2
    m_ColliderType: 1
    m_RandomTransform: 0
    m_Neighbors: 0100000001000000020000000200000002000000020000000200000002000000
    m_NeighborPositions:
    - {x: 1, y: 1, z: 0}
    - {x: -1, y: -1, z: 0}
    - {x: 0, y: 1, z: 0}
    - {x: -1, y: 0, z: 0}
    - {x: 1, y: 0, z: 0}
    - {x: 0, y: -1, z: 0}
    - {x: 1, y: -1, z: 0}
    - {x: -1, y: 1, z: 0}
    m_RuleTransform: 0
  - m_Id: 40
    m_Sprites:
    - {fileID: -1377511264, guid: d3cb72db58673194db66c76fe0078ad6, type: 3}
    - {fileID: -555387906, guid: d3cb72db58673194db66c76fe0078ad6, type: 3}
    m_GameObject: {fileID: 0}
    m_MinAnimationSpeed: 0.5
    m_MaxAnimationSpeed: 0.5
    m_PerlinScale: 0.5
    m_Output: 2
    m_ColliderType: 1
    m_RandomTransform: 0
    m_Neighbors: 01000000010000000100000002000000020000000200000002000000
    m_NeighborPositions:
    - {x: -1, y: 1, z: 0}
    - {x: -1, y: -1, z: 0}
    - {x: 1, y: -1, z: 0}
    - {x: 0, y: 1, z: 0}
    - {x: -1, y: 0, z: 0}
    - {x: 0, y: -1, z: 0}
    - {x: 1, y: 0, z: 0}
    m_RuleTransform: 0
  - m_Id: 41
    m_Sprites:
    - {fileID: 458846468, guid: d3cb72db58673194db66c76fe0078ad6, type: 3}
    - {fileID: -2099298782, guid: d3cb72db58673194db66c76fe0078ad6, type: 3}
    m_GameObject: {fileID: 0}
    m_MinAnimationSpeed: 0.5
    m_MaxAnimationSpeed: 0.5
    m_PerlinScale: 0.5
    m_Output: 2
    m_ColliderType: 1
    m_RandomTransform: 0
    m_Neighbors: 01000000010000000100000002000000020000000200000002000000
    m_NeighborPositions:
    - {x: -1, y: -1, z: 0}
    - {x: 1, y: -1, z: 0}
    - {x: 1, y: 1, z: 0}
    - {x: 0, y: 1, z: 0}
    - {x: -1, y: 0, z: 0}
    - {x: 0, y: -1, z: 0}
    - {x: 1, y: 0, z: 0}
    m_RuleTransform: 0
  - m_Id: 42
    m_Sprites:
    - {fileID: 80590021, guid: d3cb72db58673194db66c76fe0078ad6, type: 3}
    - {fileID: 321867781, guid: d3cb72db58673194db66c76fe0078ad6, type: 3}
    m_GameObject: {fileID: 0}
    m_MinAnimationSpeed: 0.5
    m_MaxAnimationSpeed: 0.5
    m_PerlinScale: 0.5
    m_Output: 2
    m_ColliderType: 1
    m_RandomTransform: 0
    m_Neighbors: 0100000001000000020000000200000002000000
    m_NeighborPositions:
    - {x: -1, y: 0, z: 0}
    - {x: 1, y: -1, z: 0}
    - {x: 0, y: 1, z: 0}
    - {x: 1, y: 0, z: 0}
    - {x: 0, y: -1, z: 0}
    m_RuleTransform: 0
  - m_Id: 43
    m_Sprites:
    - {fileID: 1837390060, guid: d3cb72db58673194db66c76fe0078ad6, type: 3}
    - {fileID: -1441516024, guid: d3cb72db58673194db66c76fe0078ad6, type: 3}
    m_GameObject: {fileID: 0}
    m_MinAnimationSpeed: 0.5
    m_MaxAnimationSpeed: 0.5
    m_PerlinScale: 0.5
    m_Output: 2
    m_ColliderType: 1
    m_RandomTransform: 0
    m_Neighbors: 0100000001000000020000000200000002000000
    m_NeighborPositions:
    - {x: 1, y: 0, z: 0}
    - {x: -1, y: -1, z: 0}
    - {x: 0, y: 1, z: 0}
    - {x: -1, y: 0, z: 0}
    - {x: 0, y: -1, z: 0}
    m_RuleTransform: 0
  - m_Id: 44
    m_Sprites:
    - {fileID: -1261039878, guid: d3cb72db58673194db66c76fe0078ad6, type: 3}
    - {fileID: -337104912, guid: d3cb72db58673194db66c76fe0078ad6, type: 3}
    m_GameObject: {fileID: 0}
    m_MinAnimationSpeed: 0.5
    m_MaxAnimationSpeed: 0.5
    m_PerlinScale: 0.5
    m_Output: 2
    m_ColliderType: 1
    m_RandomTransform: 0
    m_Neighbors: 0100000001000000020000000200000002000000
    m_NeighborPositions:
    - {x: -1, y: 1, z: 0}
    - {x: 0, y: -1, z: 0}
    - {x: 0, y: 1, z: 0}
    - {x: -1, y: 0, z: 0}
    - {x: 1, y: 0, z: 0}
    m_RuleTransform: 0
  - m_Id: 45
    m_Sprites:
    - {fileID: -1347078413, guid: d3cb72db58673194db66c76fe0078ad6, type: 3}
    - {fileID: -224873162, guid: d3cb72db58673194db66c76fe0078ad6, type: 3}
    m_GameObject: {fileID: 0}
    m_MinAnimationSpeed: 0.5
    m_MaxAnimationSpeed: 0.5
    m_PerlinScale: 0.5
    m_Output: 2
    m_ColliderType: 1
    m_RandomTransform: 0
    m_Neighbors: 0100000001000000020000000200000002000000
    m_NeighborPositions:
    - {x: 1, y: 1, z: 0}
    - {x: 0, y: -1, z: 0}
    - {x: 0, y: 1, z: 0}
    - {x: 1, y: 0, z: 0}
    - {x: -1, y: 0, z: 0}
    m_RuleTransform: 0
  - m_Id: 46
    m_Sprites:
    - {fileID: 206286401, guid: d3cb72db58673194db66c76fe0078ad6, type: 3}
    - {fileID: 1340811338, guid: d3cb72db58673194db66c76fe0078ad6, type: 3}
    m_GameObject: {fileID: 0}
    m_MinAnimationSpeed: 0.5
    m_MaxAnimationSpeed: 0.5
    m_PerlinScale: 0.5
    m_Output: 2
    m_ColliderType: 1
    m_RandomTransform: 0
    m_Neighbors: 0100000001000000020000000200000002000000020000000200000002000000
    m_NeighborPositions:
    - {x: -1, y: 1, z: 0}
    - {x: 1, y: -1, z: 0}
    - {x: 0, y: 1, z: 0}
    - {x: 1, y: 0, z: 0}
    - {x: -1, y: 0, z: 0}
    - {x: 0, y: -1, z: 0}
    - {x: -1, y: -1, z: 0}
    - {x: 1, y: 1, z: 0}
    m_RuleTransform: 0
  baseTile: {fileID: 11400000, guid: 8b788a399d079854ea4c9158adc53f11, type: 2}
