%YAML 1.1
%TAG !u! tag:unity3d.com,2011:
--- !u!114 &11400000
MonoBehaviour:
  m_ObjectHideFlags: 0
  m_CorrespondingSourceObject: {fileID: 0}
  m_PrefabInstance: {fileID: 0}
  m_PrefabAsset: {fileID: 0}
  m_GameObject: {fileID: 0}
  m_Enabled: 1
  m_EditorHideFlags: 0
  m_Script: {fileID: 11500000, guid: 13b75c95f34a00d4e8c04f76b73312e6, type: 3}
  m_Name: Dungeon Corner 10
  m_EditorClassIdentifier: 
  m_AnimatedSprites:
  - {fileID: 1232028387, guid: a18a3315835ea8f48914f6072950e0f5, type: 3}
  - {fileID: -1118946620, guid: a18a3315835ea8f48914f6072950e0f5, type: 3}
  - {fileID: -90712623, guid: a18a3315835ea8f48914f6072950e0f5, type: 3}
  - {fileID: -1895763584, guid: a18a3315835ea8f48914f6072950e0f5, type: 3}
  m_MinSpeed: 1
  m_MaxSpeed: 1
  m_AnimationStartTime: 0
  m_AnimationStartFrame: 0
  m_TileColliderType: 1
